{
  "profiles": {
    "ConsoleApp1": {
      "commandName": "Project",
      "commandLineArgs": "--f C:\\Users\\ovord\\Downloads\\newaydata-stack-Infra\\adac-luftrettung\\dev\\bin\\editorProcessing\\obstacleMerger\\out\\complete.csv --r LOVV"
    }
  }
}